Body: main page
    header: Header
          image: Header image
          span: Website name
    nav: 
        ul: Menu
    div: Work area
       div: Photo
           image: Photos
       div: Product area
            span: Name 
	    span: Mark
	    span: Articule
	    combobox: Size
	    label: Description
	    button: Put to Cart
    footer: footer