Body: main page
    header: Header
          image: Header image
          span: Website name
    nav: 
        ul: Menu
    div: Work area
       div: Fill Data
           input: FIO
	   input: Adress
           input: Phone
	   input: e-mail 
	   input: comment
       div: delivery area
            span: Delivery
            radiobutton: Kinds of Delivery
            span: Painment
            radiobutton: Kinds of Painment  
            span: Result
	    button: Ok  
    footer: footer